…
    ## New names:
    ## * `` -> ...15
    ## * `` -> ...16
    ## * `` -> ...17

``` r
trash_data
```

    ## # A tibble: 344 x 14
    ##    dumpster month  year date                weight_tons volume_cubic_ya…
    ##       <dbl> <chr> <dbl> <dttm>                    <dbl>            <dbl>
    ##  1        1 May    2014 2014-05-16 00:00:00        4.31               18
    ##  2        2 May    2014 2014-05-16 00:00:00        2.74               13
    ##  3        3 May    2014 2014-05-16 00:00:00        3.45               15
    ##  4        4 May    2014 2014-05-17 00:00:00        3.1                15
    ##  5        5 May    2014 2014-05-17 00:00:00        4.06               18
    ##  6        6 May    2014 2014-05-20 00:00:00        2.71               13
    ##  7        7 May    2014 2014-05-21 00:00:00        1.91                8
    ##  8        8 May    2014 2014-05-28 00:00:00        3.7                16
    ##  9        9 June   2014 2014-06-05 00:00:00        2.52               14
    ## 10       10 June   2014 2014-06-11 00:00:00        3.76               18
    ## # … with 334 more rows, and 8 more variables: plastic_bottles <dbl>,
    ## #   polystyrene <dbl>, cigarette_butts <dbl>, glass_bottles <dbl>,
    ## #   grocery_bags <dbl>, chip_bags <dbl>, sports_balls <int>,
    ## #   homes_powered <dbl>
…
``` r
precip_data=
  full_join(trash17_data, trash18_data) %>%
  mutate(month = month.abb[month]) 
```

    ## Joining, by = c("month", "total", "year")

``` r
precip_data
```

    ## # A tibble: 24 x 3
    ##    month total  year
    ##    <chr> <dbl> <dbl>
    ##  1 Jan    2.34  2017
    ##  2 Feb    1.46  2017
    ##  3 Mar    3.57  2017
    ##  4 Apr    3.99  2017
    ##  5 May    5.64  2017
    ##  6 Jun    1.4   2017
    ##  7 Jul    7.09  2017
    ##  8 Aug    4.44  2017
    ##  9 Sep    1.95  2017
    ## 10 Oct    0     2017
    ## # … with 14 more rows
…
``` r
pol_data
```

    ## # A tibble: 822 x 9
    ##     year month    gov_gop sen_gop rep_gop gov_dem sen_dem rep_dem president
    ##    <dbl> <chr>      <dbl>   <dbl>   <dbl>   <dbl>   <dbl>   <dbl> <chr>    
    ##  1  1947 January       23      51     253      23      45     198 dem      
    ##  2  1947 February      23      51     253      23      45     198 dem      
    ##  3  1947 March         23      51     253      23      45     198 dem      
    ##  4  1947 April         23      51     253      23      45     198 dem      
    ##  5  1947 May           23      51     253      23      45     198 dem      
    ##  6  1947 June          23      51     253      23      45     198 dem      
    ##  7  1947 July          23      51     253      23      45     198 dem      
    ##  8  1947 August        23      51     253      23      45     198 dem      
    ##  9  1947 Septemb…      23      51     253      23      45     198 dem      
    ## 10  1947 October       23      51     253      23      45     198 dem      
    ## # … with 812 more rows
…
    ## Parsed with column specification:
    ## cols(
    ##   date = col_character(),
    ##   close = col_double()
    ## )

``` r
snp_data
```

    ## # A tibble: 787 x 3
    ##     year month    close
    ##    <dbl> <chr>    <dbl>
    ##  1  1950 April     18.0
    ##  2  1950 August    18.4
    ##  3  1950 December  20.4
    ##  4  1950 February  17.2
    ##  5  1950 January   17.0
    ##  6  1950 July      17.8
    ##  7  1950 June      17.7
    ##  8  1950 March     17.3
    ##  9  1950 May       18.8
    ## 10  1950 November  19.5
    ## # … with 777 more rows
…
``` r
une_data
```

    ## # A tibble: 816 x 3
    ##     year month  rate
    ##    <dbl> <chr> <dbl>
    ##  1  1948 jan     3.4
    ##  2  1948 feb     3.8
    ##  3  1948 mar     4  
    ##  4  1948 apr     3.9
    ##  5  1948 may     3.5
    ##  6  1948 jun     3.6
    ##  7  1948 jul     3.6
    ##  8  1948 aug     3.9
    ##  9  1948 sep     3.8
    ## 10  1948 oct     3.7
    ## # … with 806 more rows
…
``` r
snppols_data=
  full_join(pol_data, snp_data)
```

    ## Joining, by = c("year", "month")

``` r
total_data=
  inner_join(snppols_data, une_data, by = "year")
total_data
```

    ## # A tibble: 9,732 x 12
    ##     year month.x gov_gop sen_gop rep_gop gov_dem sen_dem rep_dem president
    ##    <dbl> <chr>     <dbl>   <dbl>   <dbl>   <dbl>   <dbl>   <dbl> <chr>    
    ##  1  1948 January      22      53     253      24      48     198 dem      
    ##  2  1948 January      22      53     253      24      48     198 dem      
    ##  3  1948 January      22      53     253      24      48     198 dem      
    ##  4  1948 January      22      53     253      24      48     198 dem      
    ##  5  1948 January      22      53     253      24      48     198 dem      
    ##  6  1948 January      22      53     253      24      48     198 dem      
    ##  7  1948 January      22      53     253      24      48     198 dem      
    ##  8  1948 January      22      53     253      24      48     198 dem      
    ##  9  1948 January      22      53     253      24      48     198 dem      
    ## 10  1948 January      22      53     253      24      48     198 dem      
    ## # … with 9,722 more rows, and 3 more variables: close <dbl>,
    ## #   month.y <chr>, rate <dbl>
…
    ## Parsed with column specification:
    ## cols(
    ##   `Year of Birth` = col_double(),
    ##   Gender = col_character(),
    ##   Ethnicity = col_character(),
    ##   `Child's First Name` = col_character(),
    ##   Count = col_double(),
    ##   Rank = col_double()
    ## )

``` r
baby_data
```

    ## # A tibble: 19,418 x 6
    ##    year_of_birth gender ethnicity              childs_first_na… count  rank
    ##            <dbl> <chr>  <chr>                  <chr>            <dbl> <dbl>
    ##  1          2016 FEMALE ASIAN AND PACIFIC ISL… Olivia             172     1
    ##  2          2016 FEMALE ASIAN AND PACIFIC ISL… Chloe              112     2
    ##  3          2016 FEMALE ASIAN AND PACIFIC ISL… Sophia             104     3
    ##  4          2016 FEMALE ASIAN AND PACIFIC ISL… Emily               99     4
    ##  5          2016 FEMALE ASIAN AND PACIFIC ISL… Emma                99     4
    ##  6          2016 FEMALE ASIAN AND PACIFIC ISL… Mia                 79     5
    ##  7          2016 FEMALE ASIAN AND PACIFIC ISL… Charlotte           59     6
    ##  8          2016 FEMALE ASIAN AND PACIFIC ISL… Sarah               57     7
    ##  9          2016 FEMALE ASIAN AND PACIFIC ISL… Isabella            56     8
    ## 10          2016 FEMALE ASIAN AND PACIFIC ISL… Hannah              56     8
    ## # … with 19,408 more rows
